-- Merging decision tree log ---
manifest
ADDED from /home/sparrow/catalog/app/src/main/AndroidManifest.xml:2:1-49:12
	package
		ADDED from /home/sparrow/catalog/app/src/main/AndroidManifest.xml:4:5-39
		INJECTED from /home/sparrow/catalog/app/src/main/AndroidManifest.xml
		INJECTED from /home/sparrow/catalog/app/src/main/AndroidManifest.xml
	android:versionName
		ADDED from /home/sparrow/catalog/app/src/main/AndroidManifest.xml:6:5-30
	xmlns:tools
		ADDED from /home/sparrow/catalog/app/src/main/AndroidManifest.xml:3:11-57
	android:versionCode
		ADDED from /home/sparrow/catalog/app/src/main/AndroidManifest.xml:5:5-28
		INJECTED from /home/sparrow/catalog/app/src/main/AndroidManifest.xml
		INJECTED from /home/sparrow/catalog/app/src/main/AndroidManifest.xml
	xmlns:android
		ADDED from /home/sparrow/catalog/app/src/main/AndroidManifest.xml:2:11-69
uses-permission#android.permission.ACCESS_NETWORK_STATE
ADDED from /home/sparrow/catalog/app/src/main/AndroidManifest.xml:9:5-78
	android:name
		ADDED from /home/sparrow/catalog/app/src/main/AndroidManifest.xml:9:22-76
uses-permission#android.permission.ACCESS_WIFI_STATE
ADDED from /home/sparrow/catalog/app/src/main/AndroidManifest.xml:10:2-72
	android:name
		ADDED from /home/sparrow/catalog/app/src/main/AndroidManifest.xml:10:19-70
uses-permission#android.permission.INTERNET
ADDED from /home/sparrow/catalog/app/src/main/AndroidManifest.xml:11:2-63
	android:name
		ADDED from /home/sparrow/catalog/app/src/main/AndroidManifest.xml:11:19-61
uses-sdk
ADDED from /home/sparrow/catalog/app/src/main/AndroidManifest.xml:14:5-16:41
MERGED from [com.android.support:support-v4:23.1.1] /home/sparrow/catalog/app/build/intermediates/exploded-aar/com.android.support/support-v4/23.1.1/AndroidManifest.xml:20:5-43
MERGED from [com.android.support:appcompat-v7:23.1.1] /home/sparrow/catalog/app/build/intermediates/exploded-aar/com.android.support/appcompat-v7/23.1.1/AndroidManifest.xml:20:5-43
MERGED from [com.android.support:support-v4:23.1.1] /home/sparrow/catalog/app/build/intermediates/exploded-aar/com.android.support/support-v4/23.1.1/AndroidManifest.xml:20:5-43
MERGED from [com.android.support:design:23.1.1] /home/sparrow/catalog/app/build/intermediates/exploded-aar/com.android.support/design/23.1.1/AndroidManifest.xml:20:5-43
MERGED from [com.android.support:appcompat-v7:23.1.1] /home/sparrow/catalog/app/build/intermediates/exploded-aar/com.android.support/appcompat-v7/23.1.1/AndroidManifest.xml:20:5-43
MERGED from [com.android.support:support-v4:23.1.1] /home/sparrow/catalog/app/build/intermediates/exploded-aar/com.android.support/support-v4/23.1.1/AndroidManifest.xml:20:5-43
MERGED from [com.android.support:recyclerview-v7:23.1.1] /home/sparrow/catalog/app/build/intermediates/exploded-aar/com.android.support/recyclerview-v7/23.1.1/AndroidManifest.xml:20:5-43
MERGED from [com.android.support:support-v4:23.1.1] /home/sparrow/catalog/app/build/intermediates/exploded-aar/com.android.support/support-v4/23.1.1/AndroidManifest.xml:20:5-43
MERGED from [com.android.support:support-v4:23.1.1] /home/sparrow/catalog/app/build/intermediates/exploded-aar/com.android.support/support-v4/23.1.1/AndroidManifest.xml:20:5-43
MERGED from [com.android.support:cardview-v7:23.1.1] /home/sparrow/catalog/app/build/intermediates/exploded-aar/com.android.support/cardview-v7/23.1.1/AndroidManifest.xml:20:5-43
MERGED from [com.android.support:recyclerview-v7:23.1.1] /home/sparrow/catalog/app/build/intermediates/exploded-aar/com.android.support/recyclerview-v7/23.1.1/AndroidManifest.xml:20:5-43
MERGED from [com.android.support:support-v4:23.1.1] /home/sparrow/catalog/app/build/intermediates/exploded-aar/com.android.support/support-v4/23.1.1/AndroidManifest.xml:20:5-43
MERGED from [com.android.support:support-v13:23.1.1] /home/sparrow/catalog/app/build/intermediates/exploded-aar/com.android.support/support-v13/23.1.1/AndroidManifest.xml:20:5-44
MERGED from [com.android.support:support-v4:23.1.1] /home/sparrow/catalog/app/build/intermediates/exploded-aar/com.android.support/support-v4/23.1.1/AndroidManifest.xml:20:5-43
	android:targetSdkVersion
		ADDED from /home/sparrow/catalog/app/src/main/AndroidManifest.xml:16:9-38
		INJECTED from /home/sparrow/catalog/app/src/main/AndroidManifest.xml
		INJECTED from /home/sparrow/catalog/app/src/main/AndroidManifest.xml
	android:minSdkVersion
		ADDED from /home/sparrow/catalog/app/src/main/AndroidManifest.xml:15:9-35
		INJECTED from /home/sparrow/catalog/app/src/main/AndroidManifest.xml
		INJECTED from /home/sparrow/catalog/app/src/main/AndroidManifest.xml
application
ADDED from /home/sparrow/catalog/app/src/main/AndroidManifest.xml:18:5-47:19
MERGED from [com.android.support:support-v4:23.1.1] /home/sparrow/catalog/app/build/intermediates/exploded-aar/com.android.support/support-v4/23.1.1/AndroidManifest.xml:22:5-20
MERGED from [com.android.support:appcompat-v7:23.1.1] /home/sparrow/catalog/app/build/intermediates/exploded-aar/com.android.support/appcompat-v7/23.1.1/AndroidManifest.xml:22:5-20
MERGED from [com.android.support:support-v4:23.1.1] /home/sparrow/catalog/app/build/intermediates/exploded-aar/com.android.support/support-v4/23.1.1/AndroidManifest.xml:22:5-20
MERGED from [com.android.support:design:23.1.1] /home/sparrow/catalog/app/build/intermediates/exploded-aar/com.android.support/design/23.1.1/AndroidManifest.xml:22:5-20
MERGED from [com.android.support:appcompat-v7:23.1.1] /home/sparrow/catalog/app/build/intermediates/exploded-aar/com.android.support/appcompat-v7/23.1.1/AndroidManifest.xml:22:5-20
MERGED from [com.android.support:support-v4:23.1.1] /home/sparrow/catalog/app/build/intermediates/exploded-aar/com.android.support/support-v4/23.1.1/AndroidManifest.xml:22:5-20
MERGED from [com.android.support:support-v4:23.1.1] /home/sparrow/catalog/app/build/intermediates/exploded-aar/com.android.support/support-v4/23.1.1/AndroidManifest.xml:22:5-20
MERGED from [com.android.support:support-v4:23.1.1] /home/sparrow/catalog/app/build/intermediates/exploded-aar/com.android.support/support-v4/23.1.1/AndroidManifest.xml:22:5-20
MERGED from [com.android.support:cardview-v7:23.1.1] /home/sparrow/catalog/app/build/intermediates/exploded-aar/com.android.support/cardview-v7/23.1.1/AndroidManifest.xml:22:5-20
MERGED from [com.android.support:support-v4:23.1.1] /home/sparrow/catalog/app/build/intermediates/exploded-aar/com.android.support/support-v4/23.1.1/AndroidManifest.xml:22:5-20
MERGED from [com.android.support:support-v13:23.1.1] /home/sparrow/catalog/app/build/intermediates/exploded-aar/com.android.support/support-v13/23.1.1/AndroidManifest.xml:22:5-20
MERGED from [com.android.support:support-v4:23.1.1] /home/sparrow/catalog/app/build/intermediates/exploded-aar/com.android.support/support-v4/23.1.1/AndroidManifest.xml:22:5-20
	android:label
		ADDED from /home/sparrow/catalog/app/src/main/AndroidManifest.xml:20:9-41
	android:icon
		ADDED from /home/sparrow/catalog/app/src/main/AndroidManifest.xml:19:9-40
	android:theme
		ADDED from /home/sparrow/catalog/app/src/main/AndroidManifest.xml:21:9-52
	android:name
		ADDED from /home/sparrow/catalog/app/src/main/AndroidManifest.xml:22:9-47
activity#com.auruscatalog.catalog.activity.ActivityMain
ADDED from /home/sparrow/catalog/app/src/main/AndroidManifest.xml:24:9-30:20
	android:name
		ADDED from /home/sparrow/catalog/app/src/main/AndroidManifest.xml:24:19-56
intent-filter#android.intent.action.MAIN+android.intent.category.LAUNCHER
ADDED from /home/sparrow/catalog/app/src/main/AndroidManifest.xml:25:13-29:29
action#android.intent.action.MAIN
ADDED from /home/sparrow/catalog/app/src/main/AndroidManifest.xml:26:17-69
	android:name
		ADDED from /home/sparrow/catalog/app/src/main/AndroidManifest.xml:26:25-66
category#android.intent.category.LAUNCHER
ADDED from /home/sparrow/catalog/app/src/main/AndroidManifest.xml:28:17-77
	android:name
		ADDED from /home/sparrow/catalog/app/src/main/AndroidManifest.xml:28:27-74
service#com.paypal.android.sdk.payments.PayPalService
ADDED from /home/sparrow/catalog/app/src/main/AndroidManifest.xml:34:9-36:37
	android:exported
		ADDED from /home/sparrow/catalog/app/src/main/AndroidManifest.xml:36:10-34
	android:name
		ADDED from /home/sparrow/catalog/app/src/main/AndroidManifest.xml:35:13-73
activity#com.paypal.android.sdk.payments.PaymentActivity
ADDED from /home/sparrow/catalog/app/src/main/AndroidManifest.xml:37:3-78
	android:name
		ADDED from /home/sparrow/catalog/app/src/main/AndroidManifest.xml:37:13-75
activity#com.paypal.android.sdk.payments.LoginActivity
ADDED from /home/sparrow/catalog/app/src/main/AndroidManifest.xml:38:3-76
	android:name
		ADDED from /home/sparrow/catalog/app/src/main/AndroidManifest.xml:38:13-73
activity#com.paypal.android.sdk.payments.PaymentMethodActivity
ADDED from /home/sparrow/catalog/app/src/main/AndroidManifest.xml:39:3-84
	android:name
		ADDED from /home/sparrow/catalog/app/src/main/AndroidManifest.xml:39:13-81
activity#com.paypal.android.sdk.payments.PaymentConfirmActivity
ADDED from /home/sparrow/catalog/app/src/main/AndroidManifest.xml:40:3-85
	android:name
		ADDED from /home/sparrow/catalog/app/src/main/AndroidManifest.xml:40:13-82
activity#io.card.payment.CardIOActivity
ADDED from /home/sparrow/catalog/app/src/main/AndroidManifest.xml:41:3-43:65
	android:configChanges
		ADDED from /home/sparrow/catalog/app/src/main/AndroidManifest.xml:43:12-62
	android:name
		ADDED from /home/sparrow/catalog/app/src/main/AndroidManifest.xml:42:7-52
activity#io.card.payment.DataEntryActivity
ADDED from /home/sparrow/catalog/app/src/main/AndroidManifest.xml:44:3-64
	android:name
		ADDED from /home/sparrow/catalog/app/src/main/AndroidManifest.xml:44:13-61
